^C:\USERS\BORIS\DESKTOP\PROJECTS\FLOPPYPIXELS\FLOPPYPIXELS\RELEASE\ENGINE.OBJ|C:\USERS\BORIS\DESKTOP\PROJECTS\FLOPPYPIXELS\FLOPPYPIXELS\RELEASE\STDAFX.OBJ
C:\WINDOWS\GLOBALIZATION\SORTING\SORTDEFAULT.NLS
C:\USERS\BORIS\DESKTOP\PROJECTS\FLOPPYPIXELS\FLOPPYPIXELS\RELEASE\ENGINE.OBJ
C:\WINDOWS\SYSTEM32\TZRES.DLL
C:\USERS\BORIS\DESKTOP\PROJECTS\FLOPPYPIXELS\FLOPPYPIXELS\RELEASE\STDAFX.OBJ
^C:\USERS\BORIS\DESKTOP\PROJECTS\FLOPPYPIXELS\FLOPPYPIXELS\RELEASE\ENGINE.OBJ|C:\USERS\BORIS\DESKTOP\PROJECTS\FLOPPYPIXELS\FLOPPYPIXELS\RELEASE\FLOPPYPIXELS.OBJ|C:\USERS\BORIS\DESKTOP\PROJECTS\FLOPPYPIXELS\FLOPPYPIXELS\RELEASE\STDAFX.OBJ
C:\WINDOWS\GLOBALIZATION\SORTING\SORTDEFAULT.NLS
C:\USERS\BORIS\DESKTOP\PROJECTS\FLOPPYPIXELS\FLOPPYPIXELS\RELEASE\ENGINE.OBJ
C:\WINDOWS\SYSTEM32\TZRES.DLL
C:\USERS\BORIS\DESKTOP\PROJECTS\FLOPPYPIXELS\FLOPPYPIXELS\RELEASE\FLOPPYPIXELS.OBJ
C:\USERS\BORIS\DESKTOP\PROJECTS\FLOPPYPIXELS\FLOPPYPIXELS\RELEASE\STDAFX.OBJ
